digraph graphname {
    newrank = true;
    size="26,10";
    rankdir="LR";
    splines=ortho;
    graph [fontname = "sans"];
    node [fontname = "sans", style=filled];
    edge [fontname = "sans", color=gray50];
    a[label="Analog  ", shape=cds, color="#BBBBBB", fillcolor=grey93, fontcolor="#999998"];
    b[label="Time-domain\nk-space Data", shape=folder, color="#BBBBBB", fillcolor=grey93];
    c[label="Volumetric\nReconstruction", shape=folder, color="#BBBBBB", fillcolor=grey93];
    d[
        label=<3D Format<BR/><B><FONT COLOR="#EF0533">B</FONT><FONT COLOR="#00DF1F">I</FONT><FONT COLOR="#0004F7">D</FONT><FONT COLOR="#CAA200">S</FONT><FONT COLOR="#8600E9">!</FONT></B>>,
        shape=folder, color="#BBBBBB", fillcolor=grey93
        ];
    e[
        label=<Preprocessed Data<BR/><B><FONT COLOR="#EF0533">B</FONT><FONT COLOR="#00DF1F">I</FONT><FONT COLOR="#0004F7">D</FONT><FONT COLOR="#CAA200">S</FONT><FONT COLOR="#8600E9">!</FONT></B>>,
        shape=folder, color="#BBBBBB", fillcolor=grey93
        ];
    f[
        label=<Statistic Summaries<BR/><B><FONT COLOR="#EF0533">B</FONT><FONT COLOR="#00DF1F">I</FONT><FONT COLOR="#0004F7">D</FONT><FONT COLOR="#CAA200">S</FONT><FONT COLOR="#8600E9">!</FONT></B>>,
        shape=folder, color="#BBBBBB", fillcolor=grey93
        ];
    g[label="Plots", shape=folder, color="#BBBBBB", fillcolor=grey93];
    m0[label="Manual  ", shape=cds, color="#BBBBBB", fillcolor=grey93, fontcolor="#999998"];
    m1[label="Metadata", shape=folder, color="#BBBBBB", fillcolor=grey93];
    m0 -> m1;
    a -> b;
    subgraph cluster1 {
        m1;
        b -> c;
        label = "Acquisition System (Bruker)";
        fontcolor = "#1873cc";
        color = "#1b81e5";
    }
    m1 -> d [color="#8600E9"];
    m1 -> d [color="#CAA200"];
    m1 -> d [color="#0004F7"];
    m1 -> d [color="#00DF1F"];
    m1 -> d [color="#EF0533"];
    c -> d;
    subgraph cluster2 {
        d -> e [arrowsize=0.9, penwidth=4, color="#DE9A00"];
        e -> f ;
        f -> g ;
        label = "Analysis System";
        fontcolor = "#DE9A00";
        color = "#EDA000";
    }
    {rank=same; a; m0}
    {rank=same; m1; c}
}
