digraph graphname {
    size="10,26";
    rankdir="TB";
    graph [fontname = "sans"];
    node [fontname ="sans", fillcolor=grey93, style=filled, color="#BBBBBB", shape=box];
    edge [fontname ="sans", color=gray50];
    o[label="SAMRI", shape=folder, fillcolor=grey93, fontcolor="#00a3cc", color="#00a3cc"];
    a1[label="analysis", shape=folder, fillcolor=grey93, color="#45B000"];
    a2[label="fetch", shape=folder, fillcolor=grey93, color="#45B000"];
    a3[label="pipelines", shape=folder, fillcolor=grey93, color="#45B000"];
    a4[label="plotting", shape=folder, fillcolor=grey93, color="#45B000"];
    a5[label="report", shape=folder, fillcolor=grey93, color="#45B000"];
    b[label="reposit.py", shape=note, fillcolor=grey93];
    c[label="preprocess.py", shape=note, fillcolor=grey93];
    d[label="glm.py", shape=note, fillcolor=grey93];
    e[label="...", shape=note];
    f[label="...", shape=note];
    g[label="...", shape=note];
    h[label="maps.py", shape=note, fillcolor=grey93];
    i[label="...", shape=note];
    j[label="...", shape=note];

    o -> a1 [color="#00a3cc"];
    o -> a2 [color="#00a3cc"];
    o -> a3 [color="#00a3cc"];
    o -> a4 [color="#00a3cc"];
    o -> a5 [color="#00a3cc"];
    a1 -> e;
    a2 -> f;
    a3 -> {b; c; d; g};
    a4 -> {h; i};
    a5 -> j;

    {rank=same; a1; a2; a3; a4; a5}
    {rank=same; b; c; d; e; f; g; h; i}
}
